0000.001 (0) Opened log file at time: Tue, 09 Oct 2018 02:24:49 +0000 on http://zestland.loc
0000.004 (0) UpdraftPlus WordPress backup plugin (https://updraftplus.com): 2.15.2.24 WP: 4.9.8 PHP: 7.0.15 (cgi-fcgi, Darwin MBP-Igor-328 16.7.0 Darwin Kernel Version 16.7.0: Thu Jun 21 20:07:39 PDT 2018; root:xnu-3789.73.14~1/RELEASE_X86_64 x86_64) MySQL: 5.6.35 WPLANG: ru_RU Server: Apache safe_mode: 0 max_execution_time: 900 memory_limit: 256M (used: 44.7M | 2M) multisite: N openssl: OpenSSL 1.0.2j  26 Sep 2016 mcrypt: Y LANG:  ZipArchive::addFile: Y
0000.007 (0) Free space on disk containing Updraft's temporary directory: 103822.2 MB
0000.013 (0) Tasks: Backup files: 1 (schedule: manual) Backup DB: 1 (schedule: manual)
0000.026 (0) Requesting semaphore lock (fd) (apparently not via scheduler)
0000.031 (0) Semaphore lock (fd, zl_options) failed (line 43)
0000.034 (0) Failed to gain semaphore lock (fd) - another backup of this type is apparently already active - aborting (if this is wrong - i.e. if the other backup crashed without removing the lock, then another can be started after 3 minutes)
